{
  "project_info": {
    "project_number": "91939923864",
    "project_id": "talaash-2e4b2"
  },
  "client": [
    {
      "client_info": {
        "mobilesdk_app_id": "1:91939923864:android:d2aa5f0738852c33",
        "android_client_info": {
          "package_name": "com.taalash"
        }
      },
      "oauth_client": [
        {
          "client_id": "91939923864-v3f4c1o44c8ls3onedo0g4lvvr43osdt.apps.googleusercontent.com",
          "client_type": 1,
          "android_info": {
            "package_name": "com.taalash",
            "certificate_hash": "66431805E261002EA6D8C7369474AFBC33B785B6"
          }
        },
        {
          "client_id": "91939923864-kfq3rjirhs5nkdifit93n3anjtep5uu2.apps.googleusercontent.com",
          "client_type": 3
        }
      ],
      "api_key": [
        {
          "current_key": "AIzaSyDl-oSDCJNWPsl552bk_M7MQe7bvz4wPSw"
        }
      ],
      "services": {
        "analytics_service": {
          "status": 1
        },
        "appinvite_service": {
          "status": 1,
          "other_platform_oauth_client": []
        },
        "ads_service": {
          "status": 1
        }
      }
    }
  ],
  "configuration_version": "1"
}